Code Keys:
1964 2645 4690 6474
8758 7478 9067 1835
4789 5278 9202 3925
7576 7uk3 ok45 8cjk
8792 6579 7937 jack
7571 8645 7854 oggy
Universals Key:
4uk2 3ru1 6od2 8ob7
4r3n 4xmf 6kf5 85jk
Defender code
5tfr 7856 7586 8685
29studio code
5638 7454 2658 5437
